<svg width="198" height="222" viewBox="0 0 198 222" fill="none" xmlns="http://www.w3.org/2000/svg">
<rect width="198" height="113" fill="#112967"/>
<path d="M198 113.18C143.332 52.9401 54.6682 52.9401 0 113.18L98.7703 222L198 113.18Z" fill="#223871"/>
</svg>
